{
  "languages": [
    {
      "language": "en",
      "authors": [
        {
          "name": "Adrian Tchaikovsky",
          "books": [
            {
              "name": "Children of Time",
              "cover": "https://images-na.ssl-images-amazon.com/images/I/51C0FqUk9FL._SX325_BO1,204,203,200_.jpg",
              "links": {
                "gitkeep": "https://gitlab.com/Tashima42/books/-/blob/main/books/en/Adrian%20Tchaikovsky/Children%20of%20Time/.gitkeep",
                "epub": "https://gitlab.com/Tashima42/books/-/blob/main/books/en/Adrian%20Tchaikovsky/Children%20of%20Time/Children-of-Time_Adrian-Tchaikovsky_.epub",
                "mobi": "https://gitlab.com/Tashima42/books/-/blob/main/books/en/Adrian%20Tchaikovsky/Children%20of%20Time/Children-of-Time_Adrian-Tchaikovsky_.mobi"
              }
            }
          ]
        },
        {
          "name": "Dan Brown",
          "books": [
            {
              "name": "The Da Vinci Code",
              "cover": "https://images-na.ssl-images-amazon.com/images/I/51C0FqUk9FL._SX325_BO1,204,203,200_.jpg",
              "links": {
                "epub": "https://gitlab.com/Tashima42/books/-/blob/main/books/en/Dan%20Brown/The%20Da%20Vinci%20Code/The-Da-Vinci-Code%5BDan-Brown%5D.epub",
                "mobi": "https://gitlab.com/Tashima42/books/-/blob/main/books/en/Dan%20Brown/The%20Da%20Vinci%20Code/The-Da-Vinci-Code%5BDan-Brown%5D.mobi",
                "pdf": "https://gitlab.com/Tashima42/books/-/blob/main/books/en/Dan%20Brown/The%20Da%20Vinci%20Code/The-Da-Vinci-Code%5BDan-Brown%5D.pdf"
              }
            }
          ]
        },
        {
          "name": "David Wong",
          "books": [
            {
              "name": "Real World Cryptography",
              "cover": "https://images-na.ssl-images-amazon.com/images/I/51C0FqUk9FL._SX325_BO1,204,203,200_.jpg",
              "links": {
                "epub": "https://gitlab.com/Tashima42/books/-/blob/main/books/en/David%20Wong/Real%20World%20Cryptography/Real-World-Cryptography%5BDavid-Wong%5D.epub",
                "mobi": "https://gitlab.com/Tashima42/books/-/blob/main/books/en/David%20Wong/Real%20World%20Cryptography/Real-World-Cryptography%5BDavid-Wong%5D.mobi",
                "pdf": "https://gitlab.com/Tashima42/books/-/blob/main/books/en/David%20Wong/Real%20World%20Cryptography/Real-World-Cryptography%5BDavid-Wong%5D.pdf"
              }
            }
          ]
        },
        {
          "name": "Douglas Adams",
          "books": [
            {
              "name": "Life, The universe and everything",
              "cover": "https://images-na.ssl-images-amazon.com/images/I/51C0FqUk9FL._SX325_BO1,204,203,200_.jpg",
              "links": {
                "epub": "https://gitlab.com/Tashima42/books/-/blob/main/books/en/Douglas%20Adams/Life%2C%20The%20universe%20and%20everything/Life%2C-The-Universe-and-Everything%5BDouglas-Adams%5D.epub",
                "mobi": "https://gitlab.com/Tashima42/books/-/blob/main/books/en/Douglas%20Adams/Life%2C%20The%20universe%20and%20everything/Life%2C-The-Universe-and-Everything%5BDouglas-Adams%5D.mobi",
                "pdf": "https://gitlab.com/Tashima42/books/-/blob/main/books/en/Douglas%20Adams/Life%2C%20The%20universe%20and%20everything/Life%2C-The-Universe-and-Everything%5BDouglas-Adams%5D.pdf"
              }
            }
          ]
        },
        {
          "name": "Isaac Asimov",
          "books": [
            {
              "name": "I, Robot",
              "cover": "https://images-na.ssl-images-amazon.com/images/I/51C0FqUk9FL._SX325_BO1,204,203,200_.jpg",
              "links": {
                "mobi": "https://gitlab.com/Tashima42/books/-/blob/main/books/en/Isaac%20Asimov/I%2C%20Robot/I%2C-Robot%5BIsaac-Asimov%5D.mobi"
              }
            }
          ]
        },
        {
          "name": "Jeffrey A. Tucker",
          "books": [
            {
              "name": "A Beautiful Anarchy",
              "cover": "https://images-na.ssl-images-amazon.com/images/I/51C0FqUk9FL._SX325_BO1,204,203,200_.jpg",
              "links": {
                "mobi": "https://gitlab.com/Tashima42/books/-/blob/main/books/en/Jeffrey%20A.%20Tucker/A%20Beautiful%20Anarchy/A-Beautiful-Anarchy%5BJeffrey-A-Tucker%5D.mobi",
                "pdf": "https://gitlab.com/Tashima42/books/-/blob/main/books/en/Jeffrey%20A.%20Tucker/A%20Beautiful%20Anarchy/A-Beautiful-Anarchy%5BJeffrey-A-Tucker%5D.pdf"
              }
            }
          ]
        },
        {
          "name": "Jostein Gaarder",
          "books": [
            {
              "name": "The Solitaire Mystery",
              "cover": "https://images-na.ssl-images-amazon.com/images/I/51C0FqUk9FL._SX325_BO1,204,203,200_.jpg",
              "links": {
                "epub": "https://gitlab.com/Tashima42/books/-/blob/main/books/en/Jostein%20Gaarder/The%20Solitaire%20Mystery/The-Solitaire-Mystery%5BJostein-Gaarder%5D.epub",
                "mobi": "https://gitlab.com/Tashima42/books/-/blob/main/books/en/Jostein%20Gaarder/The%20Solitaire%20Mystery/The-Solitaire-Mystery%5BJostein-Gaarder%5D.mobi",
                "pdf": "https://gitlab.com/Tashima42/books/-/blob/main/books/en/Jostein%20Gaarder/The%20Solitaire%20Mystery/The-Solitaire-Mystery%5BJostein-Gaarder%5D.pdf"
              }
            }
          ]
        },
        {
          "name": "Miyamoto Musashi",
          "books": [
            {
              "name": "Book of Five Rings",
              "cover": "https://images-na.ssl-images-amazon.com/images/I/51C0FqUk9FL._SX325_BO1,204,203,200_.jpg",
              "links": {
                "epub": "https://gitlab.com/Tashima42/books/-/blob/main/books/en/Miyamoto%20Musashi/Book%20of%20Five%20Rings/Book-of-Five-Rings%5BMiyamoto-Musashi%5D.epub",
                "mobi": "https://gitlab.com/Tashima42/books/-/blob/main/books/en/Miyamoto%20Musashi/Book%20of%20Five%20Rings/Book-of-Five-Rings%5BMiyamoto-Musashi%5D.mobi",
                "pdf": "https://gitlab.com/Tashima42/books/-/blob/main/books/en/Miyamoto%20Musashi/Book%20of%20Five%20Rings/Book-of-Five-Rings%5BMiyamoto-Musashi%5D.pdf"
              }
            }
          ]
        },
        {
          "name": "Oscar Levin",
          "books": [
            {
              "name": "Discrete Mathematics An Open Introduction",
              "cover": "https://images-na.ssl-images-amazon.com/images/I/51C0FqUk9FL._SX325_BO1,204,203,200_.jpg",
              "links": {
                "pdf": "https://gitlab.com/Tashima42/books/-/blob/main/books/en/Oscar%20Levin/Discrete%20Mathematics%20An%20Open%20Introduction/Discrete-Mathematics-An-Open-Introduction%5BOscar-Levin%5D.pdf"
              }
            }
          ]
        },
        {
          "name": "Paul Ekman",
          "books": [
            {
              "name": "Telling Lies",
              "cover": "https://images-na.ssl-images-amazon.com/images/I/51C0FqUk9FL._SX325_BO1,204,203,200_.jpg",
              "links": {
                "pdf": "https://gitlab.com/Tashima42/books/-/blob/main/books/en/Paul%20Ekman/Telling%20Lies/Telling-Lies%5BPaul-Ekman%5D.pdf"
              }
            }
          ]
        },
        {
          "name": "Peter Thiel",
          "books": [
            {
              "name": "Zero to One",
              "cover": "https://images-na.ssl-images-amazon.com/images/I/51C0FqUk9FL._SX325_BO1,204,203,200_.jpg",
              "links": {
                "epub": "https://gitlab.com/Tashima42/books/-/blob/main/books/en/Peter%20Thiel/Zero%20to%20One/Zero-to-One%5BPeter-Thiel%5D.epub",
                "mobi": "https://gitlab.com/Tashima42/books/-/blob/main/books/en/Peter%20Thiel/Zero%20to%20One/Zero-to-One%5BPeter-Thiel%5D.mobi",
                "pdf": "https://gitlab.com/Tashima42/books/-/blob/main/books/en/Peter%20Thiel/Zero%20to%20One/Zero-to-One%5BPeter-Thiel%5D.pdf"
              }
            }
          ]
        },
        {
          "name": "Sir Arthur Conan Doyle",
          "books": [
            {
              "name": "A Study In Scarlet",
              "cover": "https://images-na.ssl-images-amazon.com/images/I/51C0FqUk9FL._SX325_BO1,204,203,200_.jpg",
              "links": {
                "epub": "https://gitlab.com/Tashima42/books/-/blob/main/books/en/Sir%20Arthur%20Conan%20Doyle/A%20Study%20In%20Scarlet/A-Study-In-Scarlet%5BSir-Arthur-Conan-Doyle%5D.epub",
                "mobi": "https://gitlab.com/Tashima42/books/-/blob/main/books/en/Sir%20Arthur%20Conan%20Doyle/A%20Study%20In%20Scarlet/A-Study-In-Scarlet%5BSir-Arthur-Conan-Doyle%5D.mobi",
                "pdf": "https://gitlab.com/Tashima42/books/-/blob/main/books/en/Sir%20Arthur%20Conan%20Doyle/A%20Study%20In%20Scarlet/A-Study-In-Scarlet%5BSir-Arthur-Conan-Doyle%5D.pdf"
              }
            },
            {
              "name": "His Last Bow",
              "cover": "https://images-na.ssl-images-amazon.com/images/I/51C0FqUk9FL._SX325_BO1,204,203,200_.jpg",
              "links": {
                "mobi": "https://gitlab.com/Tashima42/books/-/blob/main/books/en/Sir%20Arthur%20Conan%20Doyle/His%20Last%20Bow/A-Study-In-Scarlet%5BSir-Arthur-Conan-Doyle%5D.mobi",
                "pdf": "https://gitlab.com/Tashima42/books/-/blob/main/books/en/Sir%20Arthur%20Conan%20Doyle/His%20Last%20Bow/A-Study-In-Scarlet%5BSir-Arthur-Conan-Doyle%5D.pdf",
                "epub": "https://gitlab.com/Tashima42/books/-/blob/main/books/en/Sir%20Arthur%20Conan%20Doyle/His%20Last%20Bow/His-Last-Bow%5BSir-Arthur-Conan-Doyle%5D.epub"
              }
            },
            {
              "name": "The Aventures Of Sherlock Holmes",
              "cover": "https://images-na.ssl-images-amazon.com/images/I/51C0FqUk9FL._SX325_BO1,204,203,200_.jpg",
              "links": {
                "epub": "https://gitlab.com/Tashima42/books/-/blob/main/books/en/Sir%20Arthur%20Conan%20Doyle/The%20Aventures%20Of%20Sherlock%20Holmes/The-Adventures-Of-Sherlock-Holmes%5BSir-Artur-Conan-Doyle%5D.epub",
                "mobi": "https://gitlab.com/Tashima42/books/-/blob/main/books/en/Sir%20Arthur%20Conan%20Doyle/The%20Aventures%20Of%20Sherlock%20Holmes/The-Adventures-Of-Sherlock-Holmes%5BSir-Artur-Conan-Doyle%5D.mobi",
                "pdf": "https://gitlab.com/Tashima42/books/-/blob/main/books/en/Sir%20Arthur%20Conan%20Doyle/The%20Aventures%20Of%20Sherlock%20Holmes/The-Adventures-Of-Sherlock-Holmes%5BSir-Artur-Conan-Doyle%5D.pdf"
              }
            },
            {
              "name": "The Canon",
              "cover": "https://images-na.ssl-images-amazon.com/images/I/51C0FqUk9FL._SX325_BO1,204,203,200_.jpg",
              "links": {
                "epub": "https://gitlab.com/Tashima42/books/-/blob/main/books/en/Sir%20Arthur%20Conan%20Doyle/The%20Canon/The-Canon%5BSir-Arthur-Conan-Doyle%5D.epub",
                "mobi": "https://gitlab.com/Tashima42/books/-/blob/main/books/en/Sir%20Arthur%20Conan%20Doyle/The%20Canon/The-Canon%5BSir-Arthur-Conan-Doyle%5D.mobi",
                "pdf": "https://gitlab.com/Tashima42/books/-/blob/main/books/en/Sir%20Arthur%20Conan%20Doyle/The%20Canon/The-Canon%5BSir-Arthur-Conan-Doyle%5D.pdf"
              }
            },
            {
              "name": "The Case-Book Of Sherlock Holmes",
              "cover": "https://images-na.ssl-images-amazon.com/images/I/51C0FqUk9FL._SX325_BO1,204,203,200_.jpg",
              "links": {
                "epub": "https://gitlab.com/Tashima42/books/-/blob/main/books/en/Sir%20Arthur%20Conan%20Doyle/The%20Case-Book%20Of%20Sherlock%20Holmes/The-Case-Book-Of-Sherlock-Holmes%5BSir-Arthur-Conan-Doyle%5D.epub",
                "mobi": "https://gitlab.com/Tashima42/books/-/blob/main/books/en/Sir%20Arthur%20Conan%20Doyle/The%20Case-Book%20Of%20Sherlock%20Holmes/The-Case-Book-Of-Sherlock-Holmes%5BSir-Arthur-Conan-Doyle%5D.mobi",
                "pdf": "https://gitlab.com/Tashima42/books/-/blob/main/books/en/Sir%20Arthur%20Conan%20Doyle/The%20Case-Book%20Of%20Sherlock%20Holmes/The-Case-Book-Of-Sherlock-Holmes%5BSir-Arthur-Conan-Doyle%5D.pdf"
              }
            },
            {
              "name": "The Hound Of The Baskervilles",
              "cover": "https://images-na.ssl-images-amazon.com/images/I/51C0FqUk9FL._SX325_BO1,204,203,200_.jpg",
              "links": {
                "mobi": "https://gitlab.com/Tashima42/books/-/blob/main/books/en/Sir%20Arthur%20Conan%20Doyle/The%20Hound%20Of%20The%20Baskervilles/The-Case-Book-Of-Sherlock-Holmes%5BSir-Arthur-Conan-Doyle%5D.mobi",
                "pdf": "https://gitlab.com/Tashima42/books/-/blob/main/books/en/Sir%20Arthur%20Conan%20Doyle/The%20Hound%20Of%20The%20Baskervilles/The-Case-Book-Of-Sherlock-Holmes%5BSir-Arthur-Conan-Doyle%5D.pdf",
                "epub": "https://gitlab.com/Tashima42/books/-/blob/main/books/en/Sir%20Arthur%20Conan%20Doyle/The%20Hound%20Of%20The%20Baskervilles/The-Hound-Of-The-Baskervilles%5BSir-Arthur-Conan-Doyle%5D.epub"
              }
            },
            {
              "name": "The Memories Of Sherlock Holmes",
              "cover": "https://images-na.ssl-images-amazon.com/images/I/51C0FqUk9FL._SX325_BO1,204,203,200_.jpg",
              "links": {
                "epub": "https://gitlab.com/Tashima42/books/-/blob/main/books/en/Sir%20Arthur%20Conan%20Doyle/The%20Memories%20Of%20Sherlock%20Holmes/The-Memories-Of-Sherlock-Holmes%5BSir-Arthur-Conan-Doyle%5D.epub",
                "mobi": "https://gitlab.com/Tashima42/books/-/blob/main/books/en/Sir%20Arthur%20Conan%20Doyle/The%20Memories%20Of%20Sherlock%20Holmes/The-Memories-Of-Sherlock-Holmes%5BSir-Arthur-Conan-Doyle%5D.mobi"
              }
            },
            {
              "name": "The Return Of Sherlock Holmes",
              "cover": "https://images-na.ssl-images-amazon.com/images/I/51C0FqUk9FL._SX325_BO1,204,203,200_.jpg",
              "links": {
                "epub": "https://gitlab.com/Tashima42/books/-/blob/main/books/en/Sir%20Arthur%20Conan%20Doyle/The%20Return%20Of%20Sherlock%20Holmes/The-Return-Of-Sherlock-Holmes%5BSir-Arthur-Conan-Doyle%5D.epub",
                "mobi": "https://gitlab.com/Tashima42/books/-/blob/main/books/en/Sir%20Arthur%20Conan%20Doyle/The%20Return%20Of%20Sherlock%20Holmes/The-Return-Of-Sherlock-Holmes%5BSir-Arthur-Conan-Doyle%5D.mobi"
              }
            },
            {
              "name": "The Sign Of The Four",
              "cover": "https://images-na.ssl-images-amazon.com/images/I/51C0FqUk9FL._SX325_BO1,204,203,200_.jpg",
              "links": {
                "epub": "https://gitlab.com/Tashima42/books/-/blob/main/books/en/Sir%20Arthur%20Conan%20Doyle/The%20Sign%20Of%20The%20Four/The-Sign-Of-The-Four%5BSir-Arthur-Conan-Doyle%5D.epub"
              }
            },
            {
              "name": "The Valley Of Fear",
              "cover": "https://images-na.ssl-images-amazon.com/images/I/51C0FqUk9FL._SX325_BO1,204,203,200_.jpg",
              "links": {
                "epub": "https://gitlab.com/Tashima42/books/-/blob/main/books/en/Sir%20Arthur%20Conan%20Doyle/The%20Valley%20Of%20Fear/The-Valley-of-Fear%5BSir-Arthur-Conan-Doyle%5D.epub"
              }
            }
          ]
        },
        {
          "name": "Tim Bailey",
          "books": [
            {
              "name": "An Introduction to the C Programming Language and Software Design",
              "cover": "https://images-na.ssl-images-amazon.com/images/I/51C0FqUk9FL._SX325_BO1,204,203,200_.jpg",
              "links": {
                "pdf": "https://gitlab.com/Tashima42/books/-/blob/main/books/en/Tim%20Bailey/An%20Introduction%20to%20the%20C%20Programming%20Language%20and%20Software%20Design/An-Introduction-To-The-C-Programming-Language-and-Software-Desing%5BTim_Bailey%5D.pdf"
              }
            }
          ]
        }
      ]
    },
    {
      "language": "pt",
      "authors": [
        {
          "name": "Alexandre Herculano",
          "books": [
            {
              "name": "Eurico o Presbitero",
              "cover": "https://images-na.ssl-images-amazon.com/images/I/51C0FqUk9FL._SX325_BO1,204,203,200_.jpg",
              "links": {
                "mobi": "https://gitlab.com/Tashima42/books/-/blob/main/books/pt/Alexandre%20Herculano/Eurico%20o%20Presbitero/Eurico-o-Presbitero%5BAlexandre-Herculano%5D.mobi",
                "pdf": "https://gitlab.com/Tashima42/books/-/blob/main/books/pt/Alexandre%20Herculano/Eurico%20o%20Presbitero/Eurico-o-Presbitero%5BAlexandre-Herculano%5D.pdf"
              }
            }
          ]
        },
        {
          "name": "Alexandre Versignassi",
          "books": [
            {
              "name": "Crash",
              "cover": "https://images-na.ssl-images-amazon.com/images/I/51C0FqUk9FL._SX325_BO1,204,203,200_.jpg",
              "links": {
                "mobi": "https://gitlab.com/Tashima42/books/-/blob/main/books/pt/Alexandre%20Versignassi/Crash/Crash%5BAlexandre-Versignassi%5D.mobi"
              }
            }
          ]
        },
        {
          "name": "Alvaro Cardoso Gomes",
          "books": [
            {
              "name": "O Menino Invisivel",
              "cover": "https://images-na.ssl-images-amazon.com/images/I/51C0FqUk9FL._SX325_BO1,204,203,200_.jpg",
              "links": {
                "pdf": "https://gitlab.com/Tashima42/books/-/blob/main/books/pt/Alvaro%20Cardoso%20Gomes/O%20Menino%20Invisivel/O-Menino-Invis%C3%ADvel%5BAlvaro-Cardoso-Gomes%5D.pdf"
              }
            }
          ]
        },
        {
          "name": "Andrew Pyper",
          "books": [
            {
              "name": "O Demonologista",
              "cover": "https://images-na.ssl-images-amazon.com/images/I/51C0FqUk9FL._SX325_BO1,204,203,200_.jpg",
              "links": {
                "epub": "https://gitlab.com/Tashima42/books/-/blob/main/books/pt/Andrew%20Pyper/O%20Demonologista/O-Demonologista%5BAndrew-Pyper%5D.epub",
                "mobi": "https://gitlab.com/Tashima42/books/-/blob/main/books/pt/Andrew%20Pyper/O%20Demonologista/O-Demonologista%5BAndrew-Pyper%5D.mobi",
                "pdf": "https://gitlab.com/Tashima42/books/-/blob/main/books/pt/Andrew%20Pyper/O%20Demonologista/O-Demonologista%5BAndrew-Pyper%5D.pdf"
              }
            }
          ]
        },
        {
          "name": "Antonio Sa Neto - Fabiano Neme",
          "books": [
            {
              "name": "Old Dragon",
              "cover": "https://images-na.ssl-images-amazon.com/images/I/51C0FqUk9FL._SX325_BO1,204,203,200_.jpg",
              "links": {
                "pdf": "https://gitlab.com/Tashima42/books/-/blob/main/books/pt/Antonio%20Sa%20Neto%20-%20Fabiano%20Neme/Old%20Dragon/Old-Dragon-Fast-Play%5BAntonio-Neto%2CFabiano-Neme%5D.pdf"
              }
            }
          ]
        },
        {
          "name": "Caio Bottura",
          "books": [
            {
              "name": "Dieta Flexivel e Nutricao",
              "cover": "https://images-na.ssl-images-amazon.com/images/I/51C0FqUk9FL._SX325_BO1,204,203,200_.jpg",
              "links": {
                "pdf": "https://gitlab.com/Tashima42/books/-/blob/main/books/pt/Caio%20Bottura/Dieta%20Flexivel%20e%20Nutricao/Dieta-Flexi%CC%81vel-e-Nutric%CC%A7a%CC%83o%5BCaio-Bottura%5D.pdf"
              }
            },
            {
              "name": "Manual dos Suplementos",
              "cover": "https://images-na.ssl-images-amazon.com/images/I/51C0FqUk9FL._SX325_BO1,204,203,200_.jpg",
              "links": {
                "pdf": "https://gitlab.com/Tashima42/books/-/blob/main/books/pt/Caio%20Bottura/Manual%20dos%20Suplementos/Manual-Dos-Suplementos%5BCaio-Bottura%5D.pdf"
              }
            },
            {
              "name": "Natural Bodybuilding",
              "cover": "https://images-na.ssl-images-amazon.com/images/I/51C0FqUk9FL._SX325_BO1,204,203,200_.jpg",
              "links": {
                "pdf": "https://gitlab.com/Tashima42/books/-/blob/main/books/pt/Caio%20Bottura/Natural%20Bodybuilding/Natural-Bodybuilding%5BCaio-Bottura%5D.pdf"
              }
            }
          ]
        },
        {
          "name": "Carl Sagan",
          "books": [
            {
              "name": "Cosmos",
              "cover": "https://images-na.ssl-images-amazon.com/images/I/51C0FqUk9FL._SX325_BO1,204,203,200_.jpg",
              "links": {
                "pdf": "https://gitlab.com/Tashima42/books/-/blob/main/books/pt/Carl%20Sagan/Cosmos/Cosmos%5BCarl-Sagan%5D.pdf"
              }
            },
            {
              "name": "O-Mundo-Assombrado-Pelos-Demonios",
              "cover": "https://images-na.ssl-images-amazon.com/images/I/51C0FqUk9FL._SX325_BO1,204,203,200_.jpg",
              "links": {
                "mobi": "https://gitlab.com/Tashima42/books/-/blob/main/books/pt/Carl%20Sagan/O-Mundo-Assombrado-Pelos-Demonios/O-Mundo-Assombrado-Pelos-Demonios%5BCarl-Sagan%5D.mobi"
              }
            }
          ]
        },
        {
          "name": "Cristopher Lee Barish",
          "books": [
            {
              "name": "O Livro Maldito",
              "cover": "https://images-na.ssl-images-amazon.com/images/I/51C0FqUk9FL._SX325_BO1,204,203,200_.jpg",
              "links": {
                "pdf": "https://gitlab.com/Tashima42/books/-/blob/main/books/pt/Cristopher%20Lee%20Barish/O%20Livro%20Maldito/O-Livro-Maldito%5BChristopher-Lee-Barish%5D.pdf"
              }
            }
          ]
        },
        {
          "name": "Daniel Kraus",
          "books": [
            {
              "name": "A-Forma-da-Agua",
              "cover": "https://images-na.ssl-images-amazon.com/images/I/51C0FqUk9FL._SX325_BO1,204,203,200_.jpg",
              "links": {
                "mobi": "https://gitlab.com/Tashima42/books/-/blob/main/books/pt/Daniel%20Kraus/A-Forma-da-Agua/A-Forma-da-Agua%5BDaniel-Kraus%5D.mobi"
              }
            }
          ]
        },
        {
          "name": "Departamento de Estado dos Estados Unidos",
          "books": [
            {
              "name": "Historia Americana",
              "cover": "https://images-na.ssl-images-amazon.com/images/I/51C0FqUk9FL._SX325_BO1,204,203,200_.jpg",
              "links": {
                "pdf": "https://gitlab.com/Tashima42/books/-/blob/main/books/pt/Departamento%20de%20Estado%20dos%20Estados%20Unidos/Historia%20Americana/Historia-Americana%5BDepartamento-de-Estado%5D.pdf"
              }
            }
          ]
        },
        {
          "name": "Douglas Adams",
          "books": [
            {
              "name": "A vida, o universo e tudo mais",
              "cover": "https://images-na.ssl-images-amazon.com/images/I/51C0FqUk9FL._SX325_BO1,204,203,200_.jpg",
              "links": {
                "epub": "https://gitlab.com/Tashima42/books/-/blob/main/books/pt/Douglas%20Adams/A%20vida%2C%20o%20universo%20e%20tudo%20mais/A-Vida%2C-O-Universo-e-Tudo-Mais%5BDouglas-Adams%5D.epub",
                "mobi": "https://gitlab.com/Tashima42/books/-/blob/main/books/pt/Douglas%20Adams/A%20vida%2C%20o%20universo%20e%20tudo%20mais/A-Vida%2C-O-Universo-e-Tudo-Mais%5BDouglas-Adams%5D.mobi",
                "pdf": "https://gitlab.com/Tashima42/books/-/blob/main/books/pt/Douglas%20Adams/A%20vida%2C%20o%20universo%20e%20tudo%20mais/A-Vida%2C-O-Universo-e-Tudo-Mais%5BDouglas-Adams%5D.pdf"
              }
            },
            {
              "name": "Agencia de Investigações holisticas",
              "cover": "https://images-na.ssl-images-amazon.com/images/I/51C0FqUk9FL._SX325_BO1,204,203,200_.jpg",
              "links": {
                "epub": "https://gitlab.com/Tashima42/books/-/blob/main/books/pt/Douglas%20Adams/Agencia%20de%20Investiga%C3%A7%C3%B5es%20holisticas/Agencia-de-investigacoes-holisticas%5BDouglas-Adams%5D.epub",
                "mobi": "https://gitlab.com/Tashima42/books/-/blob/main/books/pt/Douglas%20Adams/Agencia%20de%20Investiga%C3%A7%C3%B5es%20holisticas/Agencia-de-investigacoes-holisticas%5BDouglas-Adams%5D.mobi",
                "pdf": "https://gitlab.com/Tashima42/books/-/blob/main/books/pt/Douglas%20Adams/Agencia%20de%20Investiga%C3%A7%C3%B5es%20holisticas/Agencia-de-investigacoes-holisticas%5BDouglas-Adams%5D.pdf"
              }
            },
            {
              "name": "Ate mais e obrigado pelos peixes",
              "cover": "https://images-na.ssl-images-amazon.com/images/I/51C0FqUk9FL._SX325_BO1,204,203,200_.jpg",
              "links": {
                "epub": "https://gitlab.com/Tashima42/books/-/blob/main/books/pt/Douglas%20Adams/Ate%20mais%20e%20obrigado%20pelos%20peixes/Ate-Mais%2C-e-Obrigado-Pelos-Peixes!%5BDouglas-Adams%5D.epub",
                "mobi": "https://gitlab.com/Tashima42/books/-/blob/main/books/pt/Douglas%20Adams/Ate%20mais%20e%20obrigado%20pelos%20peixes/Ate-Mais%2C-e-Obrigado-Pelos-Peixes!%5BDouglas-Adams%5D.mobi",
                "pdf": "https://gitlab.com/Tashima42/books/-/blob/main/books/pt/Douglas%20Adams/Ate%20mais%20e%20obrigado%20pelos%20peixes/Ate-Mais%2C-e-Obrigado-Pelos-Peixes!%5BDouglas-Adams%5D.pdf"
              }
            },
            {
              "name": "O guia do mochileiro das Galaxias",
              "cover": "https://images-na.ssl-images-amazon.com/images/I/51C0FqUk9FL._SX325_BO1,204,203,200_.jpg",
              "links": {
                "mobi": "https://gitlab.com/Tashima42/books/-/blob/main/books/pt/Douglas%20Adams/O%20guia%20do%20mochileiro%20das%20Galaxias/A-Vida%2C-O-Universo-e-Tudo-Mais%5BDouglas-Adams%5D.mobi",
                "pdf": "https://gitlab.com/Tashima42/books/-/blob/main/books/pt/Douglas%20Adams/O%20guia%20do%20mochileiro%20das%20Galaxias/A-Vida%2C-O-Universo-e-Tudo-Mais%5BDouglas-Adams%5D.pdf",
                "epub": "https://gitlab.com/Tashima42/books/-/blob/main/books/pt/Douglas%20Adams/O%20guia%20do%20mochileiro%20das%20Galaxias/O-Guia-do-Mochileiro-das-Galaxias%5BDouglas-Adams%5D.epub"
              }
            },
            {
              "name": "O restaurante no fim do universo",
              "cover": "https://images-na.ssl-images-amazon.com/images/I/51C0FqUk9FL._SX325_BO1,204,203,200_.jpg",
              "links": {
                "epub": "https://gitlab.com/Tashima42/books/-/blob/main/books/pt/Douglas%20Adams/O%20restaurante%20no%20fim%20do%20universo/O-Restaurante-no-Fim-do-Universo%5BDouglas-Adams%5D.epub",
                "mobi": "https://gitlab.com/Tashima42/books/-/blob/main/books/pt/Douglas%20Adams/O%20restaurante%20no%20fim%20do%20universo/O-Restaurante-no-Fim-do-Universo%5BDouglas-Adams%5D.mobi",
                "pdf": "https://gitlab.com/Tashima42/books/-/blob/main/books/pt/Douglas%20Adams/O%20restaurante%20no%20fim%20do%20universo/O-Restaurante-no-Fim-do-Universo%5BDouglas-Adams%5D.pdf"
              }
            },
            {
              "name": "O salmão da duvida",
              "cover": "https://images-na.ssl-images-amazon.com/images/I/51C0FqUk9FL._SX325_BO1,204,203,200_.jpg",
              "links": {
                "epub": "https://gitlab.com/Tashima42/books/-/blob/main/books/pt/Douglas%20Adams/O%20salm%C3%A3o%20da%20duvida/O-Salmao-da-Duvida%5BDouglas-Adams%5D.epub",
                "mobi": "https://gitlab.com/Tashima42/books/-/blob/main/books/pt/Douglas%20Adams/O%20salm%C3%A3o%20da%20duvida/O-Salmao-da-Duvida%5BDouglas-Adams%5D.mobi",
                "pdf": "https://gitlab.com/Tashima42/books/-/blob/main/books/pt/Douglas%20Adams/O%20salm%C3%A3o%20da%20duvida/O-Salmao-da-Duvida%5BDouglas-Adams%5D.pdf"
              }
            },
            {
              "name": "Praticamente inofensiva",
              "cover": "https://images-na.ssl-images-amazon.com/images/I/51C0FqUk9FL._SX325_BO1,204,203,200_.jpg",
              "links": {
                "epub": "https://gitlab.com/Tashima42/books/-/blob/main/books/pt/Douglas%20Adams/Praticamente%20inofensiva/Praticamente-Inofensiva%5BDouglas-Adams%5D.epub",
                "mobi": "https://gitlab.com/Tashima42/books/-/blob/main/books/pt/Douglas%20Adams/Praticamente%20inofensiva/Praticamente-Inofensiva%5BDouglas-Adams%5D.mobi",
                "pdf": "https://gitlab.com/Tashima42/books/-/blob/main/books/pt/Douglas%20Adams/Praticamente%20inofensiva/Praticamente-Inofensiva%5BDouglas-Adams%5D.pdf"
              }
            }
          ]
        },
        {
          "name": "Eduardo Sphor",
          "books": [
            {
              "name": "A Batalha do Apocalipse",
              "cover": "https://images-na.ssl-images-amazon.com/images/I/51C0FqUk9FL._SX325_BO1,204,203,200_.jpg",
              "links": {
                "epub": "https://gitlab.com/Tashima42/books/-/blob/main/books/pt/Eduardo%20Sphor/A%20Batalha%20do%20Apocalipse/A-Batalha-do-Apocalipse%5BEduardo-Spohr%5D.epub",
                "mobi": "https://gitlab.com/Tashima42/books/-/blob/main/books/pt/Eduardo%20Sphor/A%20Batalha%20do%20Apocalipse/Praticamente-Inofensiva%5BDouglas-Adams%5D.mobi",
                "pdf": "https://gitlab.com/Tashima42/books/-/blob/main/books/pt/Eduardo%20Sphor/A%20Batalha%20do%20Apocalipse/Praticamente-Inofensiva%5BDouglas-Adams%5D.pdf"
              }
            },
            {
              "name": "Anjos da Morte",
              "cover": "https://images-na.ssl-images-amazon.com/images/I/51C0FqUk9FL._SX325_BO1,204,203,200_.jpg",
              "links": {
                "epub": "https://gitlab.com/Tashima42/books/-/blob/main/books/pt/Eduardo%20Sphor/Anjos%20da%20Morte/Anjos-da-Morte%5BEduardo-Spohr%5D.epub",
                "mobi": "https://gitlab.com/Tashima42/books/-/blob/main/books/pt/Eduardo%20Sphor/Anjos%20da%20Morte/Praticamente-Inofensiva%5BDouglas-Adams%5D.mobi",
                "pdf": "https://gitlab.com/Tashima42/books/-/blob/main/books/pt/Eduardo%20Sphor/Anjos%20da%20Morte/Praticamente-Inofensiva%5BDouglas-Adams%5D.pdf"
              }
            },
            {
              "name": "Herdeiros de Atlantida",
              "cover": "https://images-na.ssl-images-amazon.com/images/I/51C0FqUk9FL._SX325_BO1,204,203,200_.jpg",
              "links": {
                "epub": "https://gitlab.com/Tashima42/books/-/blob/main/books/pt/Eduardo%20Sphor/Herdeiros%20de%20Atlantida/Herdeiros-de-Atlantida%5BEduardo-Spohr%5D.epub",
                "mobi": "https://gitlab.com/Tashima42/books/-/blob/main/books/pt/Eduardo%20Sphor/Herdeiros%20de%20Atlantida/Herdeiros-de-Atlantida%5BEduardo-Spohr%5D.mobi",
                "pdf": "https://gitlab.com/Tashima42/books/-/blob/main/books/pt/Eduardo%20Sphor/Herdeiros%20de%20Atlantida/Herdeiros-de-Atlantida%5BEduardo-Spohr%5D.pdf"
              }
            },
            {
              "name": "Paraiso Perdido",
              "cover": "https://images-na.ssl-images-amazon.com/images/I/51C0FqUk9FL._SX325_BO1,204,203,200_.jpg",
              "links": {
                "mobi": "https://gitlab.com/Tashima42/books/-/blob/main/books/pt/Eduardo%20Sphor/Paraiso%20Perdido/Herdeiros-de-Atlantida%5BEduardo-Spohr%5D.mobi",
                "pdf": "https://gitlab.com/Tashima42/books/-/blob/main/books/pt/Eduardo%20Sphor/Paraiso%20Perdido/Herdeiros-de-Atlantida%5BEduardo-Spohr%5D.pdf",
                "epub": "https://gitlab.com/Tashima42/books/-/blob/main/books/pt/Eduardo%20Sphor/Paraiso%20Perdido/Paraiso-perdido%5BEduardo-Spohr%5D.epub"
              }
            }
          ]
        },
        {
          "name": "Ernest Cline",
          "books": [
            {
              "name": "Armada",
              "cover": "https://images-na.ssl-images-amazon.com/images/I/51C0FqUk9FL._SX325_BO1,204,203,200_.jpg",
              "links": {
                "epub": "https://gitlab.com/Tashima42/books/-/blob/main/books/pt/Ernest%20Cline/Armada/Armada%5BErnest-Cline%5D.epub",
                "mobi": "https://gitlab.com/Tashima42/books/-/blob/main/books/pt/Ernest%20Cline/Armada/Herdeiros-de-Atlantida%5BEduardo-Spohr%5D.mobi",
                "pdf": "https://gitlab.com/Tashima42/books/-/blob/main/books/pt/Ernest%20Cline/Armada/Herdeiros-de-Atlantida%5BEduardo-Spohr%5D.pdf"
              }
            },
            {
              "name": "Jogador Numero 1",
              "cover": "https://images-na.ssl-images-amazon.com/images/I/51C0FqUk9FL._SX325_BO1,204,203,200_.jpg",
              "links": {
                "mobi": "https://gitlab.com/Tashima42/books/-/blob/main/books/pt/Ernest%20Cline/Jogador%20Numero%201/Herdeiros-de-Atlantida%5BEduardo-Spohr%5D.mobi",
                "pdf": "https://gitlab.com/Tashima42/books/-/blob/main/books/pt/Ernest%20Cline/Jogador%20Numero%201/Herdeiros-de-Atlantida%5BEduardo-Spohr%5D.pdf",
                "epub": "https://gitlab.com/Tashima42/books/-/blob/main/books/pt/Ernest%20Cline/Jogador%20Numero%201/Jogador-Numero-1%5BErnest-Cline%5D.epub"
              }
            }
          ]
        },
        {
          "name": "Flávio Morgenstern",
          "books": [
            {
              "name": "Por Tras da Mascara",
              "cover": "https://images-na.ssl-images-amazon.com/images/I/51C0FqUk9FL._SX325_BO1,204,203,200_.jpg",
              "links": {
                "mobi": "https://gitlab.com/Tashima42/books/-/blob/main/books/pt/Fl%C3%A1vio%20Morgenstern/Por%20Tras%20da%20Mascara/Por-Tras-da-Mascara%5BFlavio-Morgenstern%5D.mobi",
                "pdf": "https://gitlab.com/Tashima42/books/-/blob/main/books/pt/Fl%C3%A1vio%20Morgenstern/Por%20Tras%20da%20Mascara/Por-Tras-da-Mascara%5BFlavio-Morgenstern%5D.pdf"
              }
            }
          ]
        },
        {
          "name": "George Orwell",
          "books": [
            {
              "name": "1984",
              "cover": "https://images-na.ssl-images-amazon.com/images/I/51C0FqUk9FL._SX325_BO1,204,203,200_.jpg",
              "links": {
                "mobi": "https://gitlab.com/Tashima42/books/-/blob/main/books/pt/George%20Orwell/1984/1984%5BGeorge-Orwell%5D.mobi"
              }
            }
          ]
        },
        {
          "name": "George R. R. Martin",
          "books": [
            {
              "name": "O Cavaleiro dos Sete Reinos",
              "cover": "https://images-na.ssl-images-amazon.com/images/I/51C0FqUk9FL._SX325_BO1,204,203,200_.jpg",
              "links": {
                "-R": "https://gitlab.com/Tashima42/books/-/blob/main/books/pt/George%20R.%20R.%20Martin/O%20Cavaleiro%20dos%20Sete%20Reinos/O-Cavaleiro-dos-Sete-Reinos%5BGeorge-R.-R.-Martin%5D.mobi"
              }
            }
          ]
        },
        {
          "name": "Georges Bataille",
          "books": [
            {
              "name": "Historia do Olho",
              "cover": "https://images-na.ssl-images-amazon.com/images/I/51C0FqUk9FL._SX325_BO1,204,203,200_.jpg",
              "links": {
                "mobi": "https://gitlab.com/Tashima42/books/-/blob/main/books/pt/Georges%20Bataille/Historia%20do%20Olho/Historia-do-Olho%5BGeorges-Bataille%5D.mobi"
              }
            }
          ]
        },
        {
          "name": "Gilberto Freyre",
          "books": [
            {
              "name": "Assombracoes do Recife Velho",
              "cover": "https://images-na.ssl-images-amazon.com/images/I/51C0FqUk9FL._SX325_BO1,204,203,200_.jpg",
              "links": {
                "mobi": "https://gitlab.com/Tashima42/books/-/blob/main/books/pt/Gilberto%20Freyre/Assombracoes%20do%20Recife%20Velho/Assombracoes-do-Recife-Velho%5BGilberto-Freyre%5D.mobi"
              }
            }
          ]
        },
        {
          "name": "Gonçalves Dias",
          "books": [
            {
              "name": "Cancao do Exilio",
              "cover": "https://images-na.ssl-images-amazon.com/images/I/51C0FqUk9FL._SX325_BO1,204,203,200_.jpg",
              "links": {
                "mobi": "https://gitlab.com/Tashima42/books/-/blob/main/books/pt/Gon%C3%A7alves%20Dias/Cancao%20do%20Exilio/Can%C3%A7%C3%A3o-do-Ex%C3%ADlio%5BGon%C3%A7alves-Dias%5D.mobi"
              }
            }
          ]
        },
        {
          "name": "Halliday",
          "books": [
            {
              "name": "Fundamentos de Fisica",
              "cover": "https://images-na.ssl-images-amazon.com/images/I/51C0FqUk9FL._SX325_BO1,204,203,200_.jpg",
              "links": {
                "pdf": "https://gitlab.com/Tashima42/books/-/blob/main/books/pt/Halliday/Fundamentos%20de%20Fisica/Fundamentos-de-Fisica%5BHalliday%2CResnick%5D.pdf"
              }
            }
          ]
        },
        {
          "name": "Hans Staden",
          "books": [
            {
              "name": "Duas Viagens ao Brasil",
              "cover": "https://images-na.ssl-images-amazon.com/images/I/51C0FqUk9FL._SX325_BO1,204,203,200_.jpg",
              "links": {
                "mobi": "https://gitlab.com/Tashima42/books/-/blob/main/books/pt/Hans%20Staden/Duas%20Viagens%20ao%20Brasil/Duas-Viagens-ao-Brasil%5BHans-Staden%5D.mobi"
              }
            }
          ]
        },
        {
          "name": "Isaac Asimov",
          "books": [
            {
              "name": "Coma e Emagreca Com Ficcao Cientifica",
              "cover": "https://images-na.ssl-images-amazon.com/images/I/51C0FqUk9FL._SX325_BO1,204,203,200_.jpg",
              "links": {
                "mobi": "https://gitlab.com/Tashima42/books/-/blob/main/books/pt/Isaac%20Asimov/Coma%20e%20Emagreca%20Com%20Ficcao%20Cientifica/Coma-e-Emagreca-Com-Ficcao-Cientifica%5BIsaac-Asimov%5D.mobi"
              }
            },
            {
              "name": "Eu, Robo",
              "cover": "https://images-na.ssl-images-amazon.com/images/I/51C0FqUk9FL._SX325_BO1,204,203,200_.jpg",
              "links": {
                "epub": "https://gitlab.com/Tashima42/books/-/blob/main/books/pt/Isaac%20Asimov/Eu%2C%20Robo/Eu%2C-Robo%5BIsaac-Asimov%5D.epub",
                "mobi": "https://gitlab.com/Tashima42/books/-/blob/main/books/pt/Isaac%20Asimov/Eu%2C%20Robo/Eu%2C-Robo%5BIsaac-Asimov%5D.mobi"
              }
            },
            {
              "name": "Fundacao",
              "cover": "https://images-na.ssl-images-amazon.com/images/I/51C0FqUk9FL._SX325_BO1,204,203,200_.jpg",
              "links": {
                "mobi": "https://gitlab.com/Tashima42/books/-/blob/main/books/pt/Isaac%20Asimov/Fundacao/Fundacao%5BIsaac-Asimov%5D.mobi"
              }
            },
            {
              "name": "O Atomo e Seus Misterios",
              "cover": "https://images-na.ssl-images-amazon.com/images/I/51C0FqUk9FL._SX325_BO1,204,203,200_.jpg",
              "links": {
                "mobi": "https://gitlab.com/Tashima42/books/-/blob/main/books/pt/Isaac%20Asimov/O%20Atomo%20e%20Seus%20Misterios/O-Atomo-e-Seus-Misterios%5BIsaac-Asimov%5D.mobi"
              }
            },
            {
              "name": "O Grande Sol de Mercurio",
              "cover": "https://images-na.ssl-images-amazon.com/images/I/51C0FqUk9FL._SX325_BO1,204,203,200_.jpg",
              "links": {
                "mobi": "https://gitlab.com/Tashima42/books/-/blob/main/books/pt/Isaac%20Asimov/O%20Grande%20Sol%20de%20Mercurio/O-Grande-Sol-de-Mercurio%5BIsaac-Asimov%5D.mobi"
              }
            }
          ]
        },
        {
          "name": "Jean De Lery",
          "books": [
            {
              "name": "Viagem a Terra do Brasil",
              "cover": "https://images-na.ssl-images-amazon.com/images/I/51C0FqUk9FL._SX325_BO1,204,203,200_.jpg",
              "links": {
                "pdf": "https://gitlab.com/Tashima42/books/-/blob/main/books/pt/Jean%20De%20Lery/Viagem%20a%20Terra%20do%20Brasil/Viagem-a-Terra-do-Brasil%5BJean-De-Lery%5D.pdf"
              }
            }
          ]
        },
        {
          "name": "Jhon Coleman",
          "books": [
            {
              "name": "O Clube de Roma",
              "cover": "https://images-na.ssl-images-amazon.com/images/I/51C0FqUk9FL._SX325_BO1,204,203,200_.jpg",
              "links": {
                "pdf": "https://gitlab.com/Tashima42/books/-/blob/main/books/pt/Jhon%20Coleman/O%20Clube%20de%20Roma/O-Clube-de-Roma%5BJohn-Coleman%5D.pdf"
              }
            }
          ]
        },
        {
          "name": "Jules Verne",
          "books": [
            {
              "name": "Vinte Mil Leguas Submarinas",
              "cover": "https://images-na.ssl-images-amazon.com/images/I/51C0FqUk9FL._SX325_BO1,204,203,200_.jpg",
              "links": {
                "mobi": "https://gitlab.com/Tashima42/books/-/blob/main/books/pt/Jules%20Verne/Vinte%20Mil%20Leguas%20Submarinas/Vinte-Mil-Leguas-Submarinas%5BJulio-Verne%5D.mobi"
              }
            }
          ]
        },
        {
          "name": "Leila Schneps",
          "books": [
            {
              "name": "A Matematica nos Tribunais",
              "cover": "https://images-na.ssl-images-amazon.com/images/I/51C0FqUk9FL._SX325_BO1,204,203,200_.jpg",
              "links": {
                "mobi": "https://gitlab.com/Tashima42/books/-/blob/main/books/pt/Leila%20Schneps/A%20Matematica%20nos%20Tribunais/A-Matematica-nos-Tribunais%5BLeila-Schneps%5D.mobi"
              }
            }
          ]
        },
        {
          "name": "Lissa Price",
          "books": [
            {
              "name": "Enders",
              "cover": "https://images-na.ssl-images-amazon.com/images/I/51C0FqUk9FL._SX325_BO1,204,203,200_.jpg",
              "links": {
                "mobi": "https://gitlab.com/Tashima42/books/-/blob/main/books/pt/Lissa%20Price/Enders/Enders%5BLissa-Price%5D.mobi"
              }
            },
            {
              "name": "Starters",
              "cover": "https://images-na.ssl-images-amazon.com/images/I/51C0FqUk9FL._SX325_BO1,204,203,200_.jpg",
              "links": {
                "mobi": "https://gitlab.com/Tashima42/books/-/blob/main/books/pt/Lissa%20Price/Starters/Starters%5BLissa-Price%5D.mobi"
              }
            }
          ]
        },
        {
          "name": "Mario de Andrade",
          "books": [
            {
              "name": "Macunaima",
              "cover": "https://images-na.ssl-images-amazon.com/images/I/51C0FqUk9FL._SX325_BO1,204,203,200_.jpg",
              "links": {
                "mobi": "https://gitlab.com/Tashima42/books/-/blob/main/books/pt/Mario%20de%20Andrade/Macunaima/Macunaima%5BMario-de-Andrade%5D.mobi"
              }
            }
          ]
        },
        {
          "name": "Marjane Satrapi",
          "books": [
            {
              "name": "Persepolis",
              "cover": "https://images-na.ssl-images-amazon.com/images/I/51C0FqUk9FL._SX325_BO1,204,203,200_.jpg",
              "links": {
                "pdf": "https://gitlab.com/Tashima42/books/-/blob/main/books/pt/Marjane%20Satrapi/Persepolis/Persepolis%5BMarjane-Satrapi%5D.pdf"
              }
            }
          ]
        },
        {
          "name": "Markus Zusak",
          "books": [
            {
              "name": "A Menina Que Roubava Livros",
              "cover": "https://images-na.ssl-images-amazon.com/images/I/51C0FqUk9FL._SX325_BO1,204,203,200_.jpg",
              "links": {
                "mobi": "https://gitlab.com/Tashima42/books/-/blob/main/books/pt/Markus%20Zusak/A%20Menina%20Que%20Roubava%20Livros/A-Menina-Que-Roubava-Livros%5BMarkus-Zusak%5D.mobi"
              }
            }
          ]
        },
        {
          "name": "Michael Hingson",
          "books": [
            {
              "name": "Adoravel Heroina",
              "cover": "https://images-na.ssl-images-amazon.com/images/I/51C0FqUk9FL._SX325_BO1,204,203,200_.jpg",
              "links": {
                "epub": "https://gitlab.com/Tashima42/books/-/blob/main/books/pt/Michael%20Hingson/Adoravel%20Heroina/Adoravel-Heroina%5BMichael-Hingson%5D.epub"
              }
            }
          ]
        },
        {
          "name": "Neil Gaiman",
          "books": [
            {
              "name": "Deuses Americanos",
              "cover": "https://images-na.ssl-images-amazon.com/images/I/51C0FqUk9FL._SX325_BO1,204,203,200_.jpg",
              "links": {
                "mobi": "https://gitlab.com/Tashima42/books/-/blob/main/books/pt/Neil%20Gaiman/Deuses%20Americanos/Deuses-Americanos%5BNeil-Gaiman%5D.mobi"
              }
            }
          ]
        },
        {
          "name": "Pamela Meyer",
          "books": [
            {
              "name": "Lie Spotting",
              "cover": "https://images-na.ssl-images-amazon.com/images/I/51C0FqUk9FL._SX325_BO1,204,203,200_.jpg",
              "links": {
                "mobi": "https://gitlab.com/Tashima42/books/-/blob/main/books/pt/Pamela%20Meyer/Lie%20Spotting/Lie-Spotting%5BPamela-Meyer%5D.mobi"
              }
            }
          ]
        },
        {
          "name": "Robert T. Klyosaki",
          "books": [
            {
              "name": "Pai Rico, Pai Pobre",
              "cover": "https://images-na.ssl-images-amazon.com/images/I/51C0FqUk9FL._SX325_BO1,204,203,200_.jpg",
              "links": {
                "mobi": "https://gitlab.com/Tashima42/books/-/blob/main/books/pt/Robert%20T.%20Klyosaki/Pai%20Rico%2C%20Pai%20Pobre/Pai-Rico%2C-Pai-Pobre%5BRobert-T-Kiyosaki%5D.mobi",
                "pdf": "https://gitlab.com/Tashima42/books/-/blob/main/books/pt/Robert%20T.%20Klyosaki/Pai%20Rico%2C%20Pai%20Pobre/Pai-Rico%2C-Pai-Pobre%5BRobert-T-Kiyosaki%5D.pdf"
              }
            }
          ]
        },
        {
          "name": "Ronnie Roberto Campos",
          "books": [
            {
              "name": "Folhas Ao Vento",
              "cover": "https://images-na.ssl-images-amazon.com/images/I/51C0FqUk9FL._SX325_BO1,204,203,200_.jpg",
              "links": {
                "pdf": "https://gitlab.com/Tashima42/books/-/blob/main/books/pt/Ronnie%20Roberto%20Campos/Folhas%20Ao%20Vento/Folhas-Ao-Vento%5BRoberto-Ronnie%5D.pdf"
              }
            }
          ]
        },
        {
          "name": "Sir Arthur Conan Doyle",
          "books": [
            {
              "name": "A Ciclista Solitaria",
              "cover": "https://images-na.ssl-images-amazon.com/images/I/51C0FqUk9FL._SX325_BO1,204,203,200_.jpg",
              "links": {
                "epub": "https://gitlab.com/Tashima42/books/-/blob/main/books/pt/Sir%20Arthur%20Conan%20Doyle/A%20Ciclista%20Solitaria/A-Ciclista-Solitaria%5BSir-Arthur-Conan-Doyle%5D.epub",
                "mobi": "https://gitlab.com/Tashima42/books/-/blob/main/books/pt/Sir%20Arthur%20Conan%20Doyle/A%20Ciclista%20Solitaria/A-Ciclista-Solitaria%5BSir-Arthur-Conan-Doyle%5D.mobi"
              }
            },
            {
              "name": "A Face Amarela",
              "cover": "https://images-na.ssl-images-amazon.com/images/I/51C0FqUk9FL._SX325_BO1,204,203,200_.jpg",
              "links": {
                "epub": "https://gitlab.com/Tashima42/books/-/blob/main/books/pt/Sir%20Arthur%20Conan%20Doyle/A%20Face%20Amarela/A-Face-Amarela%5BSir-Arthur-Conan-Doyle%5D.epub",
                "mobi": "https://gitlab.com/Tashima42/books/-/blob/main/books/pt/Sir%20Arthur%20Conan%20Doyle/A%20Face%20Amarela/A-Face-Amarela%5BSir-Arthur-Conan-Doyle%5D.mobi"
              }
            },
            {
              "name": "A Pedra Mazarino",
              "cover": "https://images-na.ssl-images-amazon.com/images/I/51C0FqUk9FL._SX325_BO1,204,203,200_.jpg",
              "links": {
                "epub": "https://gitlab.com/Tashima42/books/-/blob/main/books/pt/Sir%20Arthur%20Conan%20Doyle/A%20Pedra%20Mazarino/A-Pedra-Mazarino%5BSir-Arthur-Conan-Doyle%5D.epub"
              }
            },
            {
              "name": "A liga dos ruivos",
              "cover": "https://images-na.ssl-images-amazon.com/images/I/51C0FqUk9FL._SX325_BO1,204,203,200_.jpg",
              "links": {
                "epub": "https://gitlab.com/Tashima42/books/-/blob/main/books/pt/Sir%20Arthur%20Conan%20Doyle/A%20liga%20dos%20ruivos/A-liga-Dos-Ruivos%5BSir-Arthur-Conan-Doyle%5D.epub",
                "mobi": "https://gitlab.com/Tashima42/books/-/blob/main/books/pt/Sir%20Arthur%20Conan%20Doyle/A%20liga%20dos%20ruivos/A-liga-Dos-Ruivos%5BSir-Arthur-Conan-Doyle%5D.mobi"
              }
            },
            {
              "name": "As Tres Empenas",
              "cover": "https://images-na.ssl-images-amazon.com/images/I/51C0FqUk9FL._SX325_BO1,204,203,200_.jpg",
              "links": {
                "epub": "https://gitlab.com/Tashima42/books/-/blob/main/books/pt/Sir%20Arthur%20Conan%20Doyle/As%20Tres%20Empenas/As-Tres-Empenas%5BSir-Arthur-Conan-Doyle%5D.epub",
                "mobi": "https://gitlab.com/Tashima42/books/-/blob/main/books/pt/Sir%20Arthur%20Conan%20Doyle/As%20Tres%20Empenas/As-Tres-Empenas%5BSir-Arthur-Conan-Doyle%5D.mobi"
              }
            },
            {
              "name": "Memorias de Sherlock Holmes",
              "cover": "https://images-na.ssl-images-amazon.com/images/I/51C0FqUk9FL._SX325_BO1,204,203,200_.jpg",
              "links": {
                "epub": "https://gitlab.com/Tashima42/books/-/blob/main/books/pt/Sir%20Arthur%20Conan%20Doyle/Memorias%20de%20Sherlock%20Holmes/Memorias-de-Sherlock-Holmes%5BSir-Arthur-Conan-Doyle%5D.epub",
                "mobi": "https://gitlab.com/Tashima42/books/-/blob/main/books/pt/Sir%20Arthur%20Conan%20Doyle/Memorias%20de%20Sherlock%20Holmes/Memorias-de-Sherlock-Holmes%5BSir-Arthur-Conan-Doyle%5D.mobi"
              }
            },
            {
              "name": "O Cao dos Baskervilles",
              "cover": "https://images-na.ssl-images-amazon.com/images/I/51C0FqUk9FL._SX325_BO1,204,203,200_.jpg",
              "links": {
                "epub": "https://gitlab.com/Tashima42/books/-/blob/main/books/pt/Sir%20Arthur%20Conan%20Doyle/O%20Cao%20dos%20Baskervilles/O-Cao-dos-Baskervilles%5BSir-Arthur-Conan-Doyle%5D.epub",
                "mobi": "https://gitlab.com/Tashima42/books/-/blob/main/books/pt/Sir%20Arthur%20Conan%20Doyle/O%20Cao%20dos%20Baskervilles/O-Cao-dos-Baskervilles%5BSir-Arthur-Conan-Doyle%5D.mobi"
              }
            },
            {
              "name": "O Circulo Vermelho",
              "cover": "https://images-na.ssl-images-amazon.com/images/I/51C0FqUk9FL._SX325_BO1,204,203,200_.jpg",
              "links": {
                "epub": "https://gitlab.com/Tashima42/books/-/blob/main/books/pt/Sir%20Arthur%20Conan%20Doyle/O%20Circulo%20Vermelho/O-Circulo-Vermelho%5BSir-Arthur-Conan-Doyle%5D.epub"
              }
            },
            {
              "name": "O Cliente Ilustre",
              "cover": "https://images-na.ssl-images-amazon.com/images/I/51C0FqUk9FL._SX325_BO1,204,203,200_.jpg",
              "links": {
                "epub": "https://gitlab.com/Tashima42/books/-/blob/main/books/pt/Sir%20Arthur%20Conan%20Doyle/O%20Cliente%20Ilustre/O-Cliente-Ilustre%5BSir-Arthur-Conan-Doyle%5D.epub"
              }
            },
            {
              "name": "O Construtor de Norwood",
              "cover": "https://images-na.ssl-images-amazon.com/images/I/51C0FqUk9FL._SX325_BO1,204,203,200_.jpg",
              "links": {
                "epub": "https://gitlab.com/Tashima42/books/-/blob/main/books/pt/Sir%20Arthur%20Conan%20Doyle/O%20Construtor%20de%20Norwood/O-Construtor-de-Norwood%5BSir-Arthur-Conan-Doyle%5D.epub"
              }
            },
            {
              "name": "O Desaparecimento de Lady Frances Carfax",
              "cover": "https://images-na.ssl-images-amazon.com/images/I/51C0FqUk9FL._SX325_BO1,204,203,200_.jpg",
              "links": {
                "epub": "https://gitlab.com/Tashima42/books/-/blob/main/books/pt/Sir%20Arthur%20Conan%20Doyle/O%20Desaparecimento%20de%20Lady%20Frances%20Carfax/Desaparecimento-de-Lady-Frances-Carfax%5BSir-Arthur-Conan-Doyle%5D.epub"
              }
            },
            {
              "name": "O Detetive Agonizante",
              "cover": "https://images-na.ssl-images-amazon.com/images/I/51C0FqUk9FL._SX325_BO1,204,203,200_.jpg",
              "links": {
                "epub": "https://gitlab.com/Tashima42/books/-/blob/main/books/pt/Sir%20Arthur%20Conan%20Doyle/O%20Detetive%20Agonizante/O-Detetive-Agonizante%5BSir-Arthur-Conan-Doyle%5D.epub"
              }
            },
            {
              "name": "O Enigma de Reigate",
              "cover": "https://images-na.ssl-images-amazon.com/images/I/51C0FqUk9FL._SX325_BO1,204,203,200_.jpg",
              "links": {
                "epub": "https://gitlab.com/Tashima42/books/-/blob/main/books/pt/Sir%20Arthur%20Conan%20Doyle/O%20Enigma%20de%20Reigate/O-Enigma-de-Reigate%5BSir-Arthur-Conan-Doyle%5D.epub"
              }
            },
            {
              "name": "O Homem da Boca Torta",
              "cover": "https://images-na.ssl-images-amazon.com/images/I/51C0FqUk9FL._SX325_BO1,204,203,200_.jpg",
              "links": {
                "epub": "https://gitlab.com/Tashima42/books/-/blob/main/books/pt/Sir%20Arthur%20Conan%20Doyle/O%20Homem%20da%20Boca%20Torta/O-Homem-da-Boca-Torta%5BSir-Arthur-Conan-Doyle%5D.epub"
              }
            },
            {
              "name": "O Signo dos Quatro",
              "cover": "https://images-na.ssl-images-amazon.com/images/I/51C0FqUk9FL._SX325_BO1,204,203,200_.jpg",
              "links": {
                "epub": "https://gitlab.com/Tashima42/books/-/blob/main/books/pt/Sir%20Arthur%20Conan%20Doyle/O%20Signo%20dos%20Quatro/O-Signo-dos-Quatro%5BSir-Arthur-Conan-Doyle%5D.epub"
              }
            }
          ]
        },
        {
          "name": "Steven Levitt",
          "books": [
            {
              "name": "Freakonomics",
              "cover": "https://images-na.ssl-images-amazon.com/images/I/51C0FqUk9FL._SX325_BO1,204,203,200_.jpg",
              "links": {
                "epub": "https://gitlab.com/Tashima42/books/-/blob/main/books/pt/Steven%20Levitt/Freakonomics/Freakonomics%5BSteven-Levitt%5D.epub",
                "mobi": "https://gitlab.com/Tashima42/books/-/blob/main/books/pt/Steven%20Levitt/Freakonomics/Freakonomics%5BSteven-Levitt%5D.mobi"
              }
            }
          ]
        },
        {
          "name": "Suzanne Collins",
          "books": [
            {
              "name": "Jogos Vorazes 2",
              "cover": "https://images-na.ssl-images-amazon.com/images/I/51C0FqUk9FL._SX325_BO1,204,203,200_.jpg",
              "links": {
                "pdf": "https://gitlab.com/Tashima42/books/-/blob/main/books/pt/Suzanne%20Collins/Jogos%20Vorazes%202/Jogos-Vorazes-2%5BSuzanne-Collins%5D.pdf"
              }
            }
          ]
        },
        {
          "name": "Tom Clancy",
          "books": [
            {
              "name": "A Cacada ao Outubro Vermelho",
              "cover": "https://images-na.ssl-images-amazon.com/images/I/51C0FqUk9FL._SX325_BO1,204,203,200_.jpg",
              "links": {
                "mobi": "https://gitlab.com/Tashima42/books/-/blob/main/books/pt/Tom%20Clancy/A%20Cacada%20ao%20Outubro%20Vermelho/A-Cacada-ao-Outubro-Vermelho%5BTom-Clancy%5D.mobi"
              }
            }
          ]
        },
        {
          "name": "Trudi Canavam",
          "books": [
            {
              "name": "O Cla Dos Magos",
              "cover": "https://images-na.ssl-images-amazon.com/images/I/51C0FqUk9FL._SX325_BO1,204,203,200_.jpg",
              "links": {
                "mobi": "https://gitlab.com/Tashima42/books/-/blob/main/books/pt/Trudi%20Canavam/O%20Cla%20Dos%20Magos/O-Cla-Dos-Magos%5BTrudi-Canavan%5D.mobi"
              }
            }
          ]
        },
        {
          "name": "William Gibison",
          "books": [
            {
              "name": "Neuromancer",
              "cover": "https://images-na.ssl-images-amazon.com/images/I/51C0FqUk9FL._SX325_BO1,204,203,200_.jpg",
              "links": {
                "mobi": "https://gitlab.com/Tashima42/books/-/blob/main/books/pt/William%20Gibison/Neuromancer/Neuromancer%5BWilliam-Gibson%5D.mobi"
              }
            }
          ]
        },
        {
          "name": "Zygmunt Bauman",
          "books": [
            {
              "name": "A Sociedade Individualizada",
              "cover": "https://images-na.ssl-images-amazon.com/images/I/51C0FqUk9FL._SX325_BO1,204,203,200_.jpg",
              "links": {
                "mobi": "https://gitlab.com/Tashima42/books/-/blob/main/books/pt/Zygmunt%20Bauman/A%20Sociedade%20Individualizada/A-Sociedade-Individualizada%5BZygmunt-Bauman%5D.mobi"
              }
            }
          ]
        }
      ]
    }
  ]
}